{"Contacts":[
                 {
                 "contactID": "1",
                 "firstName": "Rafael",
                 "lastName": "Perez",
                 "phoneNumber": "8293435685",
                 "streetaddress1": "Street 9 #9",
                 "streetaddress2": "Apt 101",
                 "city": "Santo Domingo",
                 "state": "Santo Domingo",
                 "zipCode": "10110"
                 },
                 {
                 "contactID": "2",
                 "firstName": "Temy",
                 "lastName": "Perez",
                 "phoneNumber": "8095312396",
                 "streetaddress1": "Calle Diez #10",
                 "streetaddress2": "Apt 2A",
                 "city": "Santo Domingo",
                 "state": "Santo Domingo",
                 "zipCode": "33110"
                 },
                 {
                 "contactID": "3",
                 "firstName": "Eladia",
                 "lastName": "Pimentel",
                 "phoneNumber": "8093324455",
                 "streetaddress1": "Calle 8 #7",
                 "streetaddress2": "House 10",
                 "city": "San Pedro de Macoris",
                 "state": "San Pedro de Macoris",
                 "zipCode": "18002"
                 },
                 {
                 "contactID": "4",
                 "firstName": "Morgan",
                 "lastName": "Perez",
                 "phoneNumber": "8097191777",
                 "streetaddress1": "Calle Rosario Esquina B",
                 "streetaddress2": "Club Plaza Independencia",
                 "city": "Santo Domingo",
                 "state": "Santo Domingo",
                 "zipCode": "12332"
                 },
                 {
                 "contactID": "5",
                 "firstName": "Maxwell",
                 "lastName": "Sanz",
                 "phoneNumber": "8099645440",
                 "streetaddress1": "Calle Emiliano Tardiff",
                 "streetaddress2": "Apto Don Luis",
                 "city": "Gurabo",
                 "state": "Santiago",
                 "zipCode": "65547"
                 },
                 {
                 "contactID": "6",
                 "firstName": "Hernan",
                 "lastName": "Gomez",
                 "phoneNumber": "8096603385",
                 "streetaddress1": "Calle Manuel Maria Valencia #27",
                 "streetaddress2": "House 10",
                 "city": "La Isabel",
                 "state": "Puerto Plata",
                 "zipCode": "23321"
                 },
                 {
                 "contactID": "7",
                 "firstName": "Maria",
                 "lastName": "Gonzalez",
                 "phoneNumber": "8097786322",
                 "streetaddress1": "Avenida Independencia",
                 "streetaddress2": "Edif 5",
                 "city": "Distrito Nacional",
                 "state": "Santo Domingo",
                 "zipCode": "12321"
                 },
                 {
                 "contactID": "8",
                 "firstName": "Jose",
                 "lastName": "Pena",
                 "phoneNumber": "8056788909",
                 "streetaddress1": "Avenida Bolivar",
                 "streetaddress2": "Edif 10",
                 "city": "Distrito Nacional",
                 "state": "Santo Domingo",
                 "zipCode": "33191"
                 },
                 {
                 "contactID": "9",
                 "firstName": "Joaquin",
                 "lastName": "Gonzalez",
                 "phoneNumber": "80977862222",
                 "streetaddress1": "Avenida Lincoln",
                 "streetaddress2": "Edif 20",
                 "city": "Distrito Nacional",
                 "state": "Santo Domingo",
                 "zipCode": "121112"
                 },
                 {
                 "contactID": "10",
                 "firstName": "Jacqueline",
                 "lastName": "Espinoza",
                 "phoneNumber": "8097786322",
                 "streetaddress1": "Avenida Constitucion",
                 "streetaddress2": "Apto 201",
                 "city": "Distrito Nacional",
                 "state": "Santo Domingo",
                 "zipCode": "1232231"
                 }
             ]}
